[2022-02-09 12:57:48.960] [exthost] [info] Extension host with pid 395 started
[2022-02-09 12:57:49.338] [exthost] [info] Lock '/config/data/User/workspaceStorage/6a5cb589/vscode.lock': Lock acquired.
[2022-02-09 12:57:49.721] [exthost] [info] ExtensionService#_doActivateExtension vscode.debug-auto-launch, startup: true, activationEvent: '*'
[2022-02-09 12:57:49.788] [exthost] [info] ExtensionService#_doActivateExtension vscode.git-base, startup: true, activationEvent: '*', root cause: vscode.github
[2022-02-09 12:57:49.971] [exthost] [info] ExtensionService#_doActivateExtension vscode.git, startup: true, activationEvent: '*'
[2022-02-09 12:57:50.512] [exthost] [info] ExtensionService#_doActivateExtension vscode.github, startup: true, activationEvent: '*'
[2022-02-09 12:57:51.190] [exthost] [info] ExtensionService#_doActivateExtension vscode.emmet, startup: false, activationEvent: 'onStartupFinished'
[2022-02-09 12:57:51.310] [exthost] [info] ExtensionService#_doActivateExtension vscode.merge-conflict, startup: false, activationEvent: 'onStartupFinished'
[2022-02-09 12:57:51.344] [exthost] [info] Eager extensions activated
[2022-02-09 12:58:02.217] [exthost] [info] ExtensionService#_doActivateExtension vscode.configuration-editing, startup: false, activationEvent: 'onLanguage:jsonc'
[2022-02-09 12:58:02.303] [exthost] [info] ExtensionService#_doActivateExtension vscode.json-language-features, startup: false, activationEvent: 'onLanguage:jsonc'
[2022-02-09 12:58:02.831] [exthost] [info] ExtensionService#_doActivateExtension vscode.typescript-language-features, startup: false, activationEvent: 'onLanguage:jsonc'
[2022-02-09 12:58:29.315] [exthost] [warning] [Decorations] CAPPING events from decorations provider vscode.git 4150
[2022-02-09 12:59:05.363] [exthost] [info] extension host terminating: received terminate message from renderer
[2022-02-09 12:59:05.382] [exthost] [info] Lock '/config/data/User/workspaceStorage/6a5cb589/vscode.lock': Marking the lockfile as scheduled to be released in 6000 ms.
[2022-02-09 12:59:05.534] [exthost] [info] Extension host with pid 395 exiting with code 0
